<svg width="20" height="20" viewBox="0 0 20 20" fill="none" xmlns="http://www.w3.org/2000/svg">
<path d="M9.99984 3.33329C6.31794 3.33329 3.33317 6.31806 3.33317 9.99996C3.33317 13.6819 6.31794 16.6666 9.99984 16.6666C13.6817 16.6666 16.6665 13.6819 16.6665 9.99996C16.6665 6.31806 13.6817 3.33329 9.99984 3.33329ZM1.6665 9.99996C1.6665 5.39759 5.39746 1.66663 9.99984 1.66663C14.6022 1.66663 18.3332 5.39759 18.3332 9.99996C18.3332 14.6023 14.6022 18.3333 9.99984 18.3333C5.39746 18.3333 1.6665 14.6023 1.6665 9.99996ZM9.99984 4.99996C10.4601 4.99996 10.8332 5.37306 10.8332 5.83329V9.65478L13.0891 11.9107C13.4145 12.2361 13.4145 12.7638 13.0891 13.0892C12.7637 13.4147 12.236 13.4147 11.9106 13.0892L9.41058 10.5892C9.2543 10.4329 9.1665 10.221 9.1665 9.99996V5.83329C9.1665 5.37306 9.5396 4.99996 9.99984 4.99996Z" fill="#545563"/>
</svg>
