<svg width="20" height="20" viewBox="0 0 20 20" fill="none" xmlns="http://www.w3.org/2000/svg">
<path d="M10.0002 1.66663C6.3335 1.66663 3.3335 4.66663 3.3335 8.33329C3.3335 12.8333 9.16683 17.9166 9.41683 18.1666C9.5835 18.25 9.8335 18.3333 10.0002 18.3333C10.1668 18.3333 10.4168 18.25 10.5835 18.1666C10.8335 17.9166 16.6668 12.8333 16.6668 8.33329C16.6668 4.66663 13.6668 1.66663 10.0002 1.66663ZM10.0002 16.4166C8.25016 14.75 5.00016 11.1666 5.00016 8.33329C5.00016 5.58329 7.25016 3.33329 10.0002 3.33329C12.7502 3.33329 15.0002 5.58329 15.0002 8.33329C15.0002 11.0833 11.7502 14.75 10.0002 16.4166ZM10.0002 4.99996C8.16683 4.99996 6.66683 6.49996 6.66683 8.33329C6.66683 10.1666 8.16683 11.6666 10.0002 11.6666C11.8335 11.6666 13.3335 10.1666 13.3335 8.33329C13.3335 6.49996 11.8335 4.99996 10.0002 4.99996ZM10.0002 9.99996C9.0835 9.99996 8.3335 9.24996 8.3335 8.33329C8.3335 7.41663 9.0835 6.66663 10.0002 6.66663C10.9168 6.66663 11.6668 7.41663 11.6668 8.33329C11.6668 9.24996 10.9168 9.99996 10.0002 9.99996Z" fill="#545563"/>
</svg>
