<svg width="124" height="36" viewBox="0 0 124 36" fill="none" xmlns="http://www.w3.org/2000/svg">
<path d="M53.496 6.75327L52.9388 8.28692H53.0615C53.9868 7.50476 55.2188 6.41586 55.4029 5.73083C55.4573 5.57685 55.4783 5.41301 55.4642 5.25028C55.4704 5.03679 55.4335 4.82425 55.3557 4.62533C55.278 4.42641 55.1609 4.2452 55.0116 4.09252C54.8622 3.93983 54.6836 3.8188 54.4865 3.73665C54.2893 3.65451 54.0777 3.61292 53.8641 3.61439C53.6473 3.61168 53.4321 3.65196 53.231 3.7329C53.0299 3.81384 52.8468 3.93383 52.6923 4.08594C52.5378 4.23805 52.415 4.41926 52.331 4.61911C52.2469 4.81896 52.2033 5.03348 52.2026 5.25028C52.2296 5.60603 52.3697 5.94382 52.6024 6.21424C52.8351 6.48467 53.1483 6.67355 53.496 6.75327Z" fill="white"/>
<path d="M112.414 6.75327L111.857 8.28692H111.985C112.905 7.50476 114.137 6.41586 114.321 5.73083C114.375 5.57685 114.396 5.41301 114.382 5.25028C114.388 5.03679 114.351 4.82425 114.274 4.62533C114.196 4.42641 114.079 4.2452 113.93 4.09252C113.78 3.93983 113.602 3.8188 113.404 3.73665C113.207 3.65451 112.996 3.61292 112.782 3.61439C112.565 3.61168 112.35 3.65196 112.149 3.7329C111.948 3.81384 111.765 3.93383 111.61 4.08594C111.456 4.23805 111.333 4.41926 111.249 4.61911C111.165 4.81896 111.121 5.03348 111.121 5.25028C111.148 5.60578 111.289 5.94316 111.521 6.21344C111.754 6.48372 112.067 6.67281 112.414 6.75327Z" fill="white"/>
<path d="M67.3401 9.26833C68.4853 9.26833 69.5384 7.68355 69.5384 5.84828C69.5384 4.013 68.4853 2.55603 67.3401 2.55603C66.0468 2.55603 64.9937 4.03345 64.9937 5.86873C64.9937 7.704 66.0468 9.26833 67.3401 9.26833Z" fill="white"/>
<path d="M47.9342 32.7185C47.9651 32.6702 47.9909 32.6188 48.0109 32.5651C48.0436 32.4696 48.0591 32.3692 48.057 32.2684C48.0693 32.1117 48.0297 31.9553 47.9444 31.8234C47.9086 31.7773 47.9035 31.7773 47.8421 31.7773C47.8221 31.7716 47.8008 31.7716 47.7807 31.7773C47.7648 31.7841 47.7508 31.7947 47.7398 31.808C47.704 31.8541 47.6763 31.906 47.658 31.9615C47.6299 32.0578 47.6161 32.1578 47.6171 32.2582C47.6032 32.4143 47.6409 32.5706 47.7245 32.7032C47.7552 32.7441 47.7654 32.7492 47.8421 32.7492C47.8751 32.7479 47.907 32.7373 47.9342 32.7185Z" fill="white"/>
<path d="M49.4374 8.01594C50.0912 8.01657 50.7434 8.07991 51.3851 8.20509H52.1366L49.5805 4.27893L47.0244 8.20509H47.5356C48.1623 8.08316 48.799 8.01983 49.4374 8.01594Z" fill="white"/>
<path d="M87.3285 26.1028C87.1358 26.0179 86.9712 25.8802 86.8535 25.7056C86.7359 25.531 86.6702 25.3266 86.6639 25.1162V18.4703H88.6832V9.26839H86.6844V0L72.498 18.4908H77.237V28.8225C77.237 28.8225 77.237 28.8532 77.237 28.8685C77.2976 28.9727 77.3522 29.0802 77.4006 29.1906C77.4978 29.0639 77.6019 28.9427 77.7125 28.8276C78.1708 28.3481 78.7246 27.9702 79.3382 27.7183C80.0066 27.4462 80.7227 27.3106 81.4444 27.3195C82.1628 27.3096 82.8758 27.4452 83.5404 27.7183C84.1474 27.9698 84.697 28.342 85.1558 28.8123C85.601 29.2713 85.9488 29.8156 86.1783 30.4124C86.3995 31.0007 86.5121 31.6243 86.5106 32.2528C86.5106 32.4112 86.5106 32.5646 86.5106 32.718C86.4995 32.8778 86.4773 33.0367 86.4441 33.1934C86.3991 33.4233 86.2931 33.637 86.1374 33.812C86.1793 34.0891 86.1365 34.3724 86.0147 34.6248C85.8417 34.9622 85.6271 35.2766 85.3756 35.5604C85.8995 35.3712 86.391 35.1022 86.8326 34.7629C87.5345 34.2023 88.1586 33.5507 88.6883 32.8253V25.6069C88.5626 25.8426 88.3543 26.0236 88.1033 26.1152C87.8524 26.2067 87.5764 26.2023 87.3285 26.1028Z" fill="white"/>
<path d="M122.296 25.5609C119.847 27.4678 118.38 27.5547 116.335 27.5547C115.123 27.5211 113.963 27.0495 113.071 26.2272C112.18 25.4049 111.616 24.2875 111.484 23.0815H122.122C122.286 13.2917 117.358 8.73163 111.479 8.73163C109.885 8.72087 108.324 9.17573 106.985 10.0404C106.073 9.20554 104.883 8.73916 103.647 8.73163C102.733 8.74988 101.84 9.00609 101.056 9.47496C100.271 9.94384 99.6225 10.6092 99.1737 11.4053C99.1021 11.528 99.0459 11.6405 98.9948 11.7478C98.9437 11.8552 98.8568 12.029 98.7954 12.1772C98.8386 11.4075 98.9654 10.6447 99.1737 9.90232V9.26841H89.752V35.3917H99.1635V18.8486L99.5265 18.6442C100.115 19.4383 100.911 20.0555 101.827 20.4283C101.781 21.006 101.755 21.5939 101.755 22.1971C101.755 30.4738 106.029 36 112.491 36C116.116 36 119.096 34.6862 121.279 30.6629C121.678 29.7927 121.978 28.8804 122.173 27.9432C122.282 27.1541 122.323 26.3571 122.296 25.5609ZM112.757 15.6024C113.713 15.6024 114.25 16.7322 114.29 18.5266H111.223C111.223 16.8702 111.908 15.6024 112.757 15.6024Z" fill="white"/>
<path d="M15.6251 26.1028C15.4338 26.0167 15.2705 25.8785 15.1539 25.7041C15.0373 25.5296 14.9721 25.3259 14.9657 25.1162V18.4703H16.985V9.26839H14.9657V0L0.799805 18.4908H5.53369V29.0168C5.53369 31.8949 6.64303 34.267 8.23803 35.1821C9.1996 35.7919 10.3343 36.0702 11.4689 35.9744C12.7829 35.9748 14.0617 35.5498 15.1139 34.7629C15.8181 34.2032 16.4439 33.5515 16.9748 32.8253V25.6069C16.8485 25.8395 16.6418 26.018 16.3934 26.1093C16.1451 26.2006 15.8719 26.1983 15.6251 26.1028Z" fill="white"/>
<path d="M42.7758 32.2783C42.7752 31.6499 42.8878 31.0264 43.1081 30.4379C43.3327 29.8356 43.681 29.287 44.1305 28.8276C44.5864 28.3548 45.1345 27.9807 45.7409 27.7284C47.0956 27.1831 48.6088 27.1831 49.9635 27.7284C50.5574 27.983 51.0957 28.3512 51.5483 28.8122V28.7816C51.5483 28.429 51.6883 28.091 51.9376 27.8417C52.1869 27.5924 52.525 27.4524 52.8775 27.4524H54.7894C55.0573 27.4525 55.3189 27.5326 55.5409 27.6824C56.1638 27.4353 56.8288 27.312 57.4989 27.3195C58.1186 27.3013 58.7316 27.4515 59.2728 27.754L59.3904 27.8358C59.5968 27.2589 59.7676 26.6699 59.9016 26.0721C59.903 25.72 60.0434 25.3827 60.2924 25.1337C60.5414 24.8847 60.8787 24.7443 61.2308 24.7429H63.3575C63.6575 24.7418 63.9492 24.8422 64.1849 25.0278C64.4207 25.2134 64.5867 25.4734 64.6559 25.7654C64.7242 25.4738 64.8892 25.214 65.1241 25.0283C65.359 24.8426 65.6499 24.742 65.9493 24.7429H68.076C68.3747 24.7447 68.6643 24.8463 68.8986 25.0316C69.133 25.2168 69.2987 25.4751 69.3694 25.7654V9.26834H69.2365C67.8218 10.019 66.2363 10.3889 64.6355 10.3419C63.0449 10.3852 61.4702 10.0153 60.0652 9.26834H59.9323V18.8486C58.7105 13.0462 54.5287 8.77246 49.5546 8.77246C44.6878 8.77246 40.5827 12.8622 39.2637 18.4856V9.28368H29.8522V25.3359L29.6119 25.6631C29.4484 25.8802 29.2202 26.0397 28.9602 26.1187C28.7002 26.1977 28.4218 26.1921 28.1652 26.1028C27.9738 26.0166 27.8106 25.8785 27.694 25.704C27.5774 25.5296 27.5121 25.3259 27.5057 25.1161V9.26834H18.0737V29.0167C18.0737 31.8949 19.1831 34.2669 20.7781 35.182C21.7396 35.7918 22.8744 36.0701 24.009 35.9744C25.3279 35.9766 26.6121 35.5515 27.6693 34.7628C28.3702 34.1996 28.9956 33.5484 29.5301 32.8253L29.8522 32.3499V35.4632H39.2688V26.2612C39.8251 28.7684 41.0513 31.0777 42.8167 32.9429C42.7963 32.7179 42.7758 32.4879 42.7758 32.2783ZM49.6006 19.1042C50.3265 19.1042 50.807 20.5356 50.807 22.4782C50.807 24.4209 50.3265 25.6018 49.6006 25.6018C48.8746 25.6018 48.343 24.4209 48.343 22.4936C48.343 20.5663 48.8797 19.1042 49.6006 19.1042Z" fill="white"/>
<path d="M47.8317 35.8927C47.2876 35.9023 46.7471 35.8032 46.2418 35.6013C45.7996 35.4206 45.3994 35.1509 45.066 34.8089C44.7474 34.4776 44.5003 34.0843 44.34 33.6535C44.013 32.7659 44.013 31.7908 44.34 30.9032C44.5003 30.4724 44.7474 30.0791 45.066 29.7478C45.4007 29.4061 45.8005 29.1349 46.2418 28.9503C46.7442 28.7357 47.2853 28.6261 47.8317 28.6282C48.3733 28.6191 48.9111 28.7218 49.4113 28.9299C49.8512 29.1143 50.2494 29.3855 50.582 29.7274C50.9004 30.0598 51.149 30.4526 51.313 30.8827C51.6503 31.7685 51.6503 32.7473 51.313 33.6331C51.1546 34.0636 50.9092 34.4568 50.5922 34.7884C50.2588 35.1304 49.8586 35.4001 49.4164 35.5808C48.9142 35.7891 48.3754 35.8951 47.8317 35.8927ZM46.298 32.2783C46.2741 32.7582 46.4289 33.23 46.7325 33.6024C46.8696 33.7652 47.0412 33.8956 47.2348 33.984C47.4284 34.0724 47.6393 34.1167 47.8521 34.1136C48.0638 34.1146 48.2732 34.0692 48.4656 33.9807C48.6618 33.8962 48.8365 33.7686 48.9768 33.6075C49.1199 33.4372 49.2292 33.2411 49.2989 33.0298C49.3654 32.7853 49.3879 32.5308 49.3653 32.2783C49.3878 31.7978 49.2311 31.326 48.9257 30.9543C48.7914 30.7921 48.6226 30.662 48.4315 30.5735C48.2404 30.4851 48.032 30.4405 47.8214 30.4431C47.6103 30.4415 47.4015 30.4865 47.2097 30.5749C47.018 30.6633 46.8481 30.7928 46.7121 30.9543C46.5673 31.1243 46.4563 31.3204 46.3849 31.532C46.3147 31.7742 46.2853 32.0264 46.298 32.2783Z" fill="white"/>
<path d="M59.5897 35.7854H57.463V31.8387C57.4966 31.4788 57.4064 31.1181 57.2074 30.8163C57.1249 30.7151 57.0202 30.6344 56.9014 30.5803C56.7826 30.5262 56.6529 30.5003 56.5224 30.5045C56.3662 30.5054 56.2117 30.5367 56.0674 30.5965C55.9097 30.6629 55.7617 30.7507 55.6278 30.8572C55.4854 30.9698 55.3583 31.1004 55.2495 31.2457C55.14 31.4029 55.0539 31.5751 54.9939 31.757V35.7854H52.8672V28.7817H54.7791V29.9524C55.0408 29.5315 55.4191 29.1959 55.868 28.9861C56.376 28.7533 56.9299 28.638 57.4886 28.6487C57.8687 28.6312 58.2465 28.7159 58.5826 28.8941C58.846 29.05 59.0657 29.2698 59.2216 29.5332C59.371 29.7994 59.4714 30.0903 59.5181 30.392C59.567 30.6911 59.5909 30.9938 59.5897 31.2969V35.7854Z" fill="white"/>
<path d="M61.2106 26.0721H63.3372V33.2752C63.3372 33.7864 63.5673 34.0727 64.0171 34.0727C64.1361 34.0711 64.2545 34.0557 64.3699 34.0267C64.4934 33.9977 64.6122 33.9512 64.7226 33.8887L64.9987 35.4837C64.7058 35.6156 64.3988 35.7134 64.0836 35.7751C63.7644 35.8439 63.4389 35.8799 63.1123 35.8824C62.5985 35.9148 62.0929 35.742 61.7064 35.4019C61.5311 35.2192 61.3952 35.0024 61.3073 34.7649C61.2193 34.5274 61.1812 34.2744 61.1952 34.0216L61.2106 26.0721Z" fill="white"/>
<path d="M65.9292 27.9841V26.0721H68.0559V27.9994L65.9292 27.9841ZM65.9292 35.7597V28.7816H68.0559V35.7853L65.9292 35.7597Z" fill="white"/>
<path d="M76.4855 35.7852H74.3588V31.8386C74.3955 31.4777 74.3032 31.1155 74.0981 30.8162C74.0161 30.7144 73.9114 30.6332 73.7925 30.5791C73.6736 30.5249 73.5436 30.4994 73.413 30.5044C73.2585 30.5053 73.1056 30.5366 72.9632 30.5964C72.8048 30.6617 72.6567 30.7495 72.5235 30.8571C72.3799 30.9683 72.2526 31.0991 72.1452 31.2456C72.0321 31.4014 71.9441 31.5739 71.8845 31.7568V35.7852H69.7578V28.7816H71.6749V29.9522C71.9365 29.5314 72.3148 29.1958 72.7638 28.986C73.2717 28.7532 73.8257 28.6379 74.3843 28.6486C74.7628 28.6305 75.1391 28.7153 75.4732 28.894C75.7387 29.0472 75.9591 29.2676 76.1123 29.533C76.2655 29.798 76.3678 30.0893 76.4139 30.3919C76.4602 30.6913 76.4841 30.9938 76.4855 31.2968V35.7852Z" fill="white"/>
<path d="M81.4701 35.8927C80.9314 35.9032 80.3961 35.8059 79.8956 35.6064C79.4519 35.4299 79.0485 35.1656 78.7095 34.8293C78.3967 34.5033 78.1532 34.1172 77.9938 33.6944C77.8258 33.2644 77.7408 32.8065 77.7433 32.3448C77.7391 31.8581 77.824 31.3747 77.9938 30.9185C78.1545 30.4731 78.4074 30.0666 78.736 29.7257C79.0646 29.3848 79.4615 29.1171 79.9007 28.9401C80.3982 28.7338 80.9315 28.6278 81.4701 28.6282C82.0109 28.6183 82.5481 28.7174 83.0498 28.9196C83.4894 29.1022 83.8876 29.3717 84.2205 29.712C84.5379 30.0423 84.7849 30.4336 84.9464 30.8623C85.1108 31.3002 85.1939 31.7645 85.1918 32.2323C85.1918 32.355 85.1918 32.4777 85.1918 32.5953C85.1881 32.7003 85.1744 32.8047 85.1509 32.9071H79.9825C79.9864 33.1121 80.0341 33.3139 80.1222 33.4991C80.2104 33.6842 80.337 33.8484 80.4937 33.9807C80.7839 34.2134 81.1441 34.3413 81.5161 34.3437C81.8282 34.3426 82.1353 34.2654 82.4107 34.1187C82.6746 33.9955 82.8813 33.776 82.9884 33.5053L84.7981 34.0165C84.5115 34.5791 84.0674 35.0462 83.5201 35.361C82.8977 35.7209 82.189 35.9047 81.4701 35.8927ZM82.9424 31.6138C82.9234 31.2166 82.7533 30.8417 82.467 30.5658C82.1858 30.3143 81.8218 30.1752 81.4445 30.1752C81.0673 30.1752 80.7033 30.3143 80.4221 30.5658C80.1486 30.8397 79.9818 31.2023 79.9518 31.5882L82.9424 31.6138Z" fill="white"/>
</svg>
